<svg width="80" height="172" viewBox="0 0 80 172" fill="none" xmlns="http://www.w3.org/2000/svg">
<g opacity="0.7" clip-path="url(#clip0_16_22612)">
<path d="M4.21851 84.3391V88.5217H8.43701V84.3391H4.21851Z" fill="#9E0000"/>
<path d="M8.41174 88.4966V92.6793H12.6302V88.4966H8.41174Z" fill="#9E0000"/>
<path d="M8.41174 84.3391V88.5217H12.6302V84.3391H8.41174Z" fill="#9E0000"/>
<path d="M8.41174 80.1563V84.339H12.6302V80.1563H8.41174Z" fill="#9E0000"/>
<path d="M12.6302 80.1563V84.339H16.8488V80.1563H12.6302Z" fill="#9E0000"/>
<path d="M12.6302 75.9737V80.1564H16.8488V75.9737H12.6302Z" fill="#9E0000"/>
<path d="M12.6302 92.6794V96.8621H16.8488V92.6794H12.6302Z" fill="#9E0000"/>
<path d="M12.6302 88.4966V92.6793H16.8488V88.4966H12.6302Z" fill="#9E0000"/>
<path d="M16.8488 96.862V101.045H21.0673V96.862H16.8488Z" fill="#9E0000"/>
<path d="M16.8488 92.6794V96.8621H21.0673V92.6794H16.8488Z" fill="#9E0000"/>
<path d="M16.8488 75.9737V80.1564H21.0673V75.9737H16.8488Z" fill="#9E0000"/>
<path d="M16.8488 71.8161V75.9988H21.0673V71.8161H16.8488Z" fill="#9E0000"/>
<path d="M21.042 80.1563V84.339H25.2605V80.1563H21.042Z" fill="#9E0000"/>
<path d="M21.042 75.9737V80.1564H25.2605V75.9737H21.042Z" fill="#9E0000"/>
<path d="M21.042 92.6794V96.8621H25.2605V92.6794H21.042Z" fill="#9E0000"/>
<path d="M21.042 88.4966V92.6793H25.2605V88.4966H21.042Z" fill="#9E0000"/>
<path d="M25.2605 88.4966V92.6793H29.479V88.4966H25.2605Z" fill="#9E0000"/>
<path d="M25.2605 84.3391V88.5217H29.479V84.3391H25.2605Z" fill="#9E0000"/>
<path d="M25.2605 80.1563V84.339H29.479V80.1563H25.2605Z" fill="#9E0000"/>
<path d="M29.479 84.3391V88.5217H33.6975V84.3391H29.479Z" fill="#9E0000"/>
<path d="M16.8488 84.3391V88.5217H21.0673V84.3391H16.8488Z" fill="#9E0000"/>
<path d="M25.2605 155.294V159.477H29.479V155.294H25.2605Z" fill="#540000"/>
<path d="M29.479 159.477V163.66H33.6975V159.477H29.479Z" fill="#540000"/>
<path d="M29.479 155.294V159.477H33.6975V155.294H29.479Z" fill="#540000"/>
<path d="M29.479 151.112V155.294H33.6975V151.112H29.479Z" fill="#540000"/>
<path d="M33.6722 151.112V155.294H37.8907V151.112H33.6722Z" fill="#540000"/>
<path d="M33.6722 146.954V151.137H37.8907V146.954H33.6722Z" fill="#540000"/>
<path d="M33.6722 163.635V167.817H37.8907V163.635H33.6722Z" fill="#540000"/>
<path d="M33.6722 159.477V163.66H37.8907V159.477H33.6722Z" fill="#540000"/>
<path d="M37.8907 167.817V172H42.1093V167.817H37.8907Z" fill="#540000"/>
<path d="M37.8907 163.635V167.817H42.1093V163.635H37.8907Z" fill="#540000"/>
<path d="M37.8907 146.954V151.137H42.1093V146.954H37.8907Z" fill="#540000"/>
<path d="M37.8907 142.771V146.954H42.1093V142.771H37.8907Z" fill="#540000"/>
<path d="M42.1093 151.112V155.294H46.3278V151.112H42.1093Z" fill="#540000"/>
<path d="M42.1093 146.954V151.137H46.3278V146.954H42.1093Z" fill="#540000"/>
<path d="M42.1093 163.635V167.817H46.3278V163.635H42.1093Z" fill="#540000"/>
<path d="M42.1093 159.477V163.66H46.3278V159.477H42.1093Z" fill="#540000"/>
<path d="M46.3025 159.477V163.66H50.521V159.477H46.3025Z" fill="#540000"/>
<path d="M46.3025 155.294V159.477H50.521V155.294H46.3025Z" fill="#540000"/>
<path d="M46.3025 151.112V155.294H50.521V151.112H46.3025Z" fill="#540000"/>
<path d="M50.521 155.294V159.477H54.7395V155.294H50.521Z" fill="#540000"/>
<path d="M37.8907 155.294V159.477H42.1093V155.294H37.8907Z" fill="#9E0000"/>
<path d="M25.2605 13.3586V17.5413H29.479V13.3586H25.2605Z" fill="#540000"/>
<path d="M29.479 17.5413V21.724H33.6975V17.5413H29.479Z" fill="#540000"/>
<path d="M29.479 13.3586V17.5413H33.6975V13.3586H29.479Z" fill="#540000"/>
<path d="M29.479 9.20105V13.3837H33.6975V9.20105H29.479Z" fill="#540000"/>
<path d="M33.6722 9.20105V13.3837H37.8907V9.20105H33.6722Z" fill="#540000"/>
<path d="M33.6722 5.01836V9.20105H37.8907V5.01836H33.6722Z" fill="#540000"/>
<path d="M33.6722 21.7241V25.9067H37.8907V21.7241H33.6722Z" fill="#540000"/>
<path d="M33.6722 17.5413V21.724H37.8907V17.5413H33.6722Z" fill="#540000"/>
<path d="M37.8907 25.8817V30.0643H42.1093V25.8817H37.8907Z" fill="#540000"/>
<path d="M37.8907 21.7241V25.9067H42.1093V21.7241H37.8907Z" fill="#540000"/>
<path d="M37.8907 5.01836V9.20105H42.1093V5.01836H37.8907Z" fill="#540000"/>
<path d="M37.8907 0.835632V5.01831H42.1093V0.835632H37.8907Z" fill="#540000"/>
<path d="M42.1093 9.20105V13.3837H46.3278V9.20105H42.1093Z" fill="#540000"/>
<path d="M42.1093 5.01836V9.20105H46.3278V5.01836H42.1093Z" fill="#540000"/>
<path d="M42.1093 21.7241V25.9067H46.3278V21.7241H42.1093Z" fill="#540000"/>
<path d="M42.1093 17.5413V21.724H46.3278V17.5413H42.1093Z" fill="#540000"/>
<path d="M46.3025 17.5413V21.724H50.521V17.5413H46.3025Z" fill="#540000"/>
<path d="M46.3025 13.3586V17.5413H50.521V13.3586H46.3025Z" fill="#540000"/>
<path d="M46.3025 9.20105V13.3837H50.521V9.20105H46.3025Z" fill="#540000"/>
<path d="M50.521 13.3586V17.5413H54.7395V13.3586H50.521Z" fill="#540000"/>
<path d="M37.8907 13.3586V17.5413H42.1093V13.3586H37.8907Z" fill="#9E0000"/>
<path d="M46.3025 84.3391V88.5217H50.521V84.3391H46.3025Z" fill="#9E0000"/>
<path d="M50.521 88.4966V92.6793H54.7395V88.4966H50.521Z" fill="#9E0000"/>
<path d="M50.521 84.3391V88.5217H54.7395V84.3391H50.521Z" fill="#9E0000"/>
<path d="M50.521 80.1563V84.339H54.7395V80.1563H50.521Z" fill="#9E0000"/>
<path d="M54.7395 80.1563V84.339H58.958V80.1563H54.7395Z" fill="#9E0000"/>
<path d="M54.7395 75.9737V80.1564H58.958V75.9737H54.7395Z" fill="#9E0000"/>
<path d="M54.7395 92.6794V96.8621H58.958V92.6794H54.7395Z" fill="#9E0000"/>
<path d="M54.7395 88.4966V92.6793H58.958V88.4966H54.7395Z" fill="#9E0000"/>
<path d="M58.9327 96.862V101.045H63.1512V96.862H58.9327Z" fill="#9E0000"/>
<path d="M58.9327 92.6794V96.8621H63.1512V92.6794H58.9327Z" fill="#9E0000"/>
<path d="M58.9327 75.9737V80.1564H63.1512V75.9737H58.9327Z" fill="#9E0000"/>
<path d="M58.9327 71.8161V75.9988H63.1512V71.8161H58.9327Z" fill="#9E0000"/>
<path d="M63.1512 80.1563V84.339H67.3698V80.1563H63.1512Z" fill="#9E0000"/>
<path d="M63.1512 75.9737V80.1564H67.3698V75.9737H63.1512Z" fill="#9E0000"/>
<path d="M63.1512 92.6794V96.8621H67.3698V92.6794H63.1512Z" fill="#9E0000"/>
<path d="M63.1512 88.4966V92.6793H67.3698V88.4966H63.1512Z" fill="#9E0000"/>
<path d="M67.3698 88.4966V92.6793H71.5882V88.4966H67.3698Z" fill="#9E0000"/>
<path d="M67.3698 84.3391V88.5217H71.5882V84.3391H67.3698Z" fill="#9E0000"/>
<path d="M67.3698 80.1563V84.339H71.5882V80.1563H67.3698Z" fill="#9E0000"/>
<path d="M71.563 84.3391V88.5217H75.7815V84.3391H71.563Z" fill="#9E0000"/>
<path d="M58.9327 84.3391V88.5217H63.1512V84.3391H58.9327Z" fill="#9E0000"/>
<path d="M25.2605 63.4508V67.6334H29.479V63.4508H25.2605Z" fill="#9E0000"/>
<path d="M29.479 67.6334V71.816H33.6975V67.6334H29.479Z" fill="#9E0000"/>
<path d="M29.479 63.4508V67.6334H33.6975V63.4508H29.479Z" fill="#9E0000"/>
<path d="M29.479 59.2931V63.4758H33.6975V59.2931H29.479Z" fill="#9E0000"/>
<path d="M33.6722 59.2931V63.4758H37.8907V59.2931H33.6722Z" fill="#9E0000"/>
<path d="M33.6722 55.1104V59.2931H37.8907V55.1104H33.6722Z" fill="#9E0000"/>
<path d="M33.6722 71.8161V75.9988H37.8907V71.8161H33.6722Z" fill="#9E0000"/>
<path d="M33.6722 67.6334V71.816H37.8907V67.6334H33.6722Z" fill="#9E0000"/>
<path d="M37.8907 75.9737V80.1564H42.1093V75.9737H37.8907Z" fill="#9E0000"/>
<path d="M37.8907 71.8161V75.9988H42.1093V71.8161H37.8907Z" fill="#9E0000"/>
<path d="M37.8907 55.1104V59.2931H42.1093V55.1104H37.8907Z" fill="#9E0000"/>
<path d="M37.8907 50.9277V55.1104H42.1093V50.9277H37.8907Z" fill="#9E0000"/>
<path d="M42.1093 59.2931V63.4758H46.3278V59.2931H42.1093Z" fill="#9E0000"/>
<path d="M42.1093 55.1104V59.2931H46.3278V55.1104H42.1093Z" fill="#9E0000"/>
<path d="M42.1093 71.8161V75.9988H46.3278V71.8161H42.1093Z" fill="#9E0000"/>
<path d="M42.1093 67.6334V71.816H46.3278V67.6334H42.1093Z" fill="#9E0000"/>
<path d="M46.3025 67.6334V71.816H50.521V67.6334H46.3025Z" fill="#9E0000"/>
<path d="M46.3025 63.4508V67.6334H50.521V63.4508H46.3025Z" fill="#9E0000"/>
<path d="M46.3025 59.2931V63.4758H50.521V59.2931H46.3025Z" fill="#9E0000"/>
<path d="M50.521 63.4508V67.6334H54.7395V63.4508H50.521Z" fill="#9E0000"/>
<path d="M37.8907 63.4508V67.6334H42.1093V63.4508H37.8907Z" fill="#9E0000"/>
<path d="M25.2605 105.202V109.385H29.479V105.202H25.2605Z" fill="#9E0000"/>
<path d="M29.479 109.385V113.568H33.6975V109.385H29.479Z" fill="#9E0000"/>
<path d="M29.479 105.202V109.385H33.6975V105.202H29.479Z" fill="#9E0000"/>
<path d="M29.479 101.02V105.202H33.6975V101.02H29.479Z" fill="#9E0000"/>
<path d="M33.6722 101.02V105.202H37.8907V101.02H33.6722Z" fill="#9E0000"/>
<path d="M33.6722 96.862V101.045H37.8907V96.862H33.6722Z" fill="#9E0000"/>
<path d="M33.6722 113.543V117.725H37.8907V113.543H33.6722Z" fill="#9E0000"/>
<path d="M33.6722 109.385V113.568H37.8907V109.385H33.6722Z" fill="#9E0000"/>
<path d="M37.8907 117.725V121.908H42.1093V117.725H37.8907Z" fill="#9E0000"/>
<path d="M37.8907 113.543V117.725H42.1093V113.543H37.8907Z" fill="#9E0000"/>
<path d="M37.8907 96.862V101.045H42.1093V96.862H37.8907Z" fill="#9E0000"/>
<path d="M37.8907 92.6793V96.8619H42.1093V92.6793H37.8907Z" fill="#9E0000"/>
<path d="M42.1093 101.02V105.202H46.3278V101.02H42.1093Z" fill="#9E0000"/>
<path d="M42.1093 96.862V101.045H46.3278V96.862H42.1093Z" fill="#9E0000"/>
<path d="M42.1093 113.543V117.725H46.3278V113.543H42.1093Z" fill="#9E0000"/>
<path d="M42.1093 109.385V113.568H46.3278V109.385H42.1093Z" fill="#9E0000"/>
<path d="M46.3025 109.385V113.568H50.521V109.385H46.3025Z" fill="#9E0000"/>
<path d="M46.3025 105.202V109.385H50.521V105.202H46.3025Z" fill="#9E0000"/>
<path d="M46.3025 101.02V105.202H50.521V101.02H46.3025Z" fill="#9E0000"/>
<path d="M50.521 105.202V109.385H54.7395V105.202H50.521Z" fill="#9E0000"/>
<path d="M37.8907 105.202V109.385H42.1093V105.202H37.8907Z" fill="#9E0000"/>
<path d="M42.1093 80.1564V84.3391H46.3278V80.1564H42.1093Z" fill="#9E0000"/>
<path d="M46.3025 75.9737V80.1564H50.521V75.9737H46.3025Z" fill="#9E0000"/>
<path d="M50.521 71.8161V75.9988H54.7395V71.8161H50.521Z" fill="#9E0000"/>
<path d="M54.7395 67.6334V71.816H58.958V67.6334H54.7395Z" fill="#9E0000"/>
<path d="M58.9327 63.4508V67.6334H63.1512V63.4508H58.9327Z" fill="#9E0000"/>
<path d="M63.1512 59.2931V63.4758H67.3698V59.2931H63.1512Z" fill="#9E0000"/>
<path d="M67.3698 55.1104V59.2931H71.5882V55.1104H67.3698Z" fill="#9E0000"/>
<path d="M71.563 50.9277V55.1104H75.7815V50.9277H71.563Z" fill="#9E0000"/>
<path d="M71.563 117.725V121.908H75.7815V117.725H71.563Z" fill="#9E0000"/>
<path d="M67.3698 113.543V117.725H71.5882V113.543H67.3698Z" fill="#9E0000"/>
<path d="M63.1512 109.385V113.568H67.3698V109.385H63.1512Z" fill="#9E0000"/>
<path d="M58.9327 105.202V109.385H63.1512V105.202H58.9327Z" fill="#9E0000"/>
<path d="M54.7395 101.02V105.202H58.958V101.02H54.7395Z" fill="#9E0000"/>
<path d="M50.521 96.862V101.045H54.7395V96.862H50.521Z" fill="#9E0000"/>
<path d="M46.3025 92.6793V96.8619H50.521V92.6793H46.3025Z" fill="#9E0000"/>
<path d="M42.1093 88.4966V92.6793H46.3278V88.4966H42.1093Z" fill="#9E0000"/>
<path d="M4.21851 117.725V121.908H8.43701V117.725H4.21851Z" fill="#9E0000"/>
<path d="M8.41174 113.543V117.725H12.6302V113.543H8.41174Z" fill="#9E0000"/>
<path d="M12.6302 109.385V113.568H16.8488V109.385H12.6302Z" fill="#9E0000"/>
<path d="M16.8488 105.202V109.385H21.0673V105.202H16.8488Z" fill="#9E0000"/>
<path d="M21.042 101.02V105.202H25.2605V101.02H21.042Z" fill="#9E0000"/>
<path d="M25.2605 96.862V101.045H29.479V96.862H25.2605Z" fill="#9E0000"/>
<path d="M29.479 92.6793V96.8619H33.6975V92.6793H29.479Z" fill="#9E0000"/>
<path d="M33.6722 88.4966V92.6793H37.8907V88.4966H33.6722Z" fill="#9E0000"/>
<path d="M4.21851 50.9277V55.1104H8.43701V50.9277H4.21851Z" fill="#9E0000"/>
<path d="M8.41174 55.1104V59.2931H12.6302V55.1104H8.41174Z" fill="#9E0000"/>
<path d="M12.6302 59.2931V63.4758H16.8488V59.2931H12.6302Z" fill="#9E0000"/>
<path d="M16.8488 63.4508V67.6334H21.0673V63.4508H16.8488Z" fill="#9E0000"/>
<path d="M21.042 67.6334V71.816H25.2605V67.6334H21.042Z" fill="#9E0000"/>
<path d="M25.2605 71.8161V75.9988H29.479V71.8161H25.2605Z" fill="#9E0000"/>
<path d="M29.479 75.9737V80.1564H33.6975V75.9737H29.479Z" fill="#9E0000"/>
<path d="M33.6722 80.1564V84.3391H37.8907V80.1564H33.6722Z" fill="#9E0000"/>
<path d="M75.7815 46.7701V50.9528H80V46.7701H75.7815Z" fill="#9E0000"/>
<path d="M75.7815 42.5873V46.77H80V42.5873H75.7815Z" fill="#9E0000"/>
<path d="M75.7815 38.4047V42.5874H80V38.4047H75.7815Z" fill="#9E0000"/>
<path d="M75.7815 34.2471V38.4298H80V34.2471H75.7815Z" fill="#9E0000"/>
<path d="M75.7815 30.0644V34.2471H80V30.0644H75.7815Z" fill="#9E0000"/>
<path d="M75.7815 25.8818V30.0645H80V25.8818H75.7815Z" fill="#9E0000"/>
<path d="M67.3698 42.5873V46.77H71.5882V42.5873H67.3698Z" fill="#9E0000"/>
<path d="M67.3698 38.4047V42.5874H71.5882V38.4047H67.3698Z" fill="#9E0000"/>
<path d="M67.3698 34.2471V38.4298H71.5882V34.2471H67.3698Z" fill="#9E0000"/>
<path d="M67.3698 30.0644V34.2471H71.5882V30.0644H67.3698Z" fill="#9E0000"/>
<path d="M50.521 38.4047V42.5874H54.7395V38.4047H50.521Z" fill="#9E0000"/>
<path d="M50.521 34.2471V38.4298H54.7395V34.2471H50.521Z" fill="#9E0000"/>
<path d="M50.521 30.0644V34.2471H54.7395V30.0644H50.521Z" fill="#9E0000"/>
<path d="M54.7395 25.8818V30.0645H58.958V25.8818H54.7395Z" fill="#9E0000"/>
<path d="M63.1512 30.0644V34.2471H67.3698V30.0644H63.1512Z" fill="#9E0000"/>
<path d="M58.9327 34.2471V38.4298H63.1512V34.2471H58.9327Z" fill="#9E0000"/>
<path d="M54.7395 42.5873V46.77H58.958V42.5873H54.7395Z" fill="#9E0000"/>
<path d="M71.563 21.7241V25.9068H75.7815V21.7241H71.563Z" fill="#9E0000"/>
<path d="M67.3698 21.7241V25.9068H71.5882V21.7241H67.3698Z" fill="#9E0000"/>
<path d="M63.1512 21.7241V25.9068H67.3698V21.7241H63.1512Z" fill="#9E0000"/>
<path d="M58.9327 21.7241V25.9068H63.1512V21.7241H58.9327Z" fill="#9E0000"/>
<path d="M63.1512 46.7701V50.9528H67.3698V46.7701H63.1512Z" fill="#9E0000"/>
<path d="M58.9327 46.7701V50.9528H63.1512V46.7701H58.9327Z" fill="#9E0000"/>
<path d="M0 46.7701L0 50.9528H4.2185V46.7701H0Z" fill="#9E0000"/>
<path d="M0 42.5873L0 46.77H4.2185V42.5873H0Z" fill="#9E0000"/>
<path d="M0 38.4047L0 42.5874H4.2185V38.4047H0Z" fill="#9E0000"/>
<path d="M0 34.2471L0 38.4298H4.2185V34.2471H0Z" fill="#9E0000"/>
<path d="M0 30.0644L0 34.2471H4.2185V30.0644H0Z" fill="#9E0000"/>
<path d="M0 25.8818L0 30.0645H4.2185V25.8818H0Z" fill="#9E0000"/>
<path d="M8.41174 42.5873V46.77H12.6302V42.5873H8.41174Z" fill="#9E0000"/>
<path d="M8.41174 38.4047V42.5874H12.6302V38.4047H8.41174Z" fill="#9E0000"/>
<path d="M8.41174 34.2471V38.4298H12.6302V34.2471H8.41174Z" fill="#9E0000"/>
<path d="M8.41174 30.0644V34.2471H12.6302V30.0644H8.41174Z" fill="#9E0000"/>
<path d="M25.2605 38.4047V42.5874H29.479V38.4047H25.2605Z" fill="#9E0000"/>
<path d="M25.2605 34.2471V38.4298H29.479V34.2471H25.2605Z" fill="#9E0000"/>
<path d="M25.2605 30.0644V34.2471H29.479V30.0644H25.2605Z" fill="#9E0000"/>
<path d="M21.042 25.8818V30.0645H25.2605V25.8818H21.042Z" fill="#9E0000"/>
<path d="M12.6302 30.0644V34.2471H16.8488V30.0644H12.6302Z" fill="#9E0000"/>
<path d="M16.8488 34.2471V38.4298H21.0673V34.2471H16.8488Z" fill="#9E0000"/>
<path d="M21.042 42.5873V46.77H25.2605V42.5873H21.042Z" fill="#9E0000"/>
<path d="M4.21851 21.7241V25.9068H8.43701V21.7241H4.21851Z" fill="#9E0000"/>
<path d="M8.41174 21.7241V25.9068H12.6302V21.7241H8.41174Z" fill="#9E0000"/>
<path d="M12.6302 21.7241V25.9068H16.8488V21.7241H12.6302Z" fill="#9E0000"/>
<path d="M16.8488 21.7241V25.9068H21.0673V21.7241H16.8488Z" fill="#9E0000"/>
<path d="M12.6302 46.7701V50.9528H16.8488V46.7701H12.6302Z" fill="#9E0000"/>
<path d="M16.8488 46.7701V50.9528H21.0673V46.7701H16.8488Z" fill="#9E0000"/>
<path d="M0 121.908L0 126.091H4.2185V121.908H0Z" fill="#9E0000"/>
<path d="M0 126.066L0 130.248H4.2185V126.066H0Z" fill="#9E0000"/>
<path d="M0 130.248L0 134.431H4.2185V130.248H0Z" fill="#9E0000"/>
<path d="M0 134.431L0 138.614H4.2185V134.431H0Z" fill="#9E0000"/>
<path d="M0 138.589L0 142.771H4.2185V138.589H0Z" fill="#9E0000"/>
<path d="M0 142.771L0 146.954H4.2185V142.771H0Z" fill="#9E0000"/>
<path d="M8.41174 126.066V130.248H12.6302V126.066H8.41174Z" fill="#9E0000"/>
<path d="M8.41174 130.248V134.431H12.6302V130.248H8.41174Z" fill="#9E0000"/>
<path d="M8.41174 134.431V138.614H12.6302V134.431H8.41174Z" fill="#9E0000"/>
<path d="M8.41174 138.589V142.771H12.6302V138.589H8.41174Z" fill="#9E0000"/>
<path d="M25.2605 130.248V134.431H29.479V130.248H25.2605Z" fill="#9E0000"/>
<path d="M25.2605 134.431V138.614H29.479V134.431H25.2605Z" fill="#9E0000"/>
<path d="M25.2605 138.589V142.771H29.479V138.589H25.2605Z" fill="#9E0000"/>
<path d="M21.042 142.771V146.954H25.2605V142.771H21.042Z" fill="#9E0000"/>
<path d="M12.6302 138.589V142.771H16.8488V138.589H12.6302Z" fill="#9E0000"/>
<path d="M16.8488 134.431V138.614H21.0673V134.431H16.8488Z" fill="#9E0000"/>
<path d="M21.042 126.066V130.248H25.2605V126.066H21.042Z" fill="#9E0000"/>
<path d="M4.21851 146.954V151.137H8.43701V146.954H4.21851Z" fill="#9E0000"/>
<path d="M8.41174 146.954V151.137H12.6302V146.954H8.41174Z" fill="#9E0000"/>
<path d="M12.6302 146.954V151.137H16.8488V146.954H12.6302Z" fill="#9E0000"/>
<path d="M16.8488 146.954V151.137H21.0673V146.954H16.8488Z" fill="#9E0000"/>
<path d="M12.6302 121.908V126.091H16.8488V121.908H12.6302Z" fill="#9E0000"/>
<path d="M16.8488 121.908V126.091H21.0673V121.908H16.8488Z" fill="#9E0000"/>
<path d="M75.7815 121.908V126.091H80V121.908H75.7815Z" fill="#9E0000"/>
<path d="M75.7815 126.066V130.248H80V126.066H75.7815Z" fill="#9E0000"/>
<path d="M75.7815 130.248V134.431H80V130.248H75.7815Z" fill="#9E0000"/>
<path d="M75.7815 134.431V138.614H80V134.431H75.7815Z" fill="#9E0000"/>
<path d="M75.7815 138.589V142.771H80V138.589H75.7815Z" fill="#9E0000"/>
<path d="M75.7815 142.771V146.954H80V142.771H75.7815Z" fill="#9E0000"/>
<path d="M67.3698 126.066V130.248H71.5882V126.066H67.3698Z" fill="#9E0000"/>
<path d="M67.3698 130.248V134.431H71.5882V130.248H67.3698Z" fill="#9E0000"/>
<path d="M67.3698 134.431V138.614H71.5882V134.431H67.3698Z" fill="#9E0000"/>
<path d="M67.3698 138.589V142.771H71.5882V138.589H67.3698Z" fill="#9E0000"/>
<path d="M50.521 130.248V134.431H54.7395V130.248H50.521Z" fill="#9E0000"/>
<path d="M50.521 134.431V138.614H54.7395V134.431H50.521Z" fill="#9E0000"/>
<path d="M50.521 138.589V142.771H54.7395V138.589H50.521Z" fill="#9E0000"/>
<path d="M54.7395 142.771V146.954H58.958V142.771H54.7395Z" fill="#9E0000"/>
<path d="M63.1512 138.589V142.771H67.3698V138.589H63.1512Z" fill="#9E0000"/>
<path d="M58.9327 134.431V138.614H63.1512V134.431H58.9327Z" fill="#9E0000"/>
<path d="M54.7395 126.066V130.248H58.958V126.066H54.7395Z" fill="#9E0000"/>
<path d="M71.563 146.954V151.137H75.7815V146.954H71.563Z" fill="#9E0000"/>
<path d="M67.3698 146.954V151.137H71.5882V146.954H67.3698Z" fill="#9E0000"/>
<path d="M63.1512 146.954V151.137H67.3698V146.954H63.1512Z" fill="#9E0000"/>
<path d="M58.9327 146.954V151.137H63.1512V146.954H58.9327Z" fill="#9E0000"/>
<path d="M63.1512 121.908V126.091H67.3698V121.908H63.1512Z" fill="#9E0000"/>
<path d="M58.9327 121.908V126.091H63.1512V121.908H58.9327Z" fill="#9E0000"/>
<path d="M33.6722 84.3391V88.5217H37.8907V84.3391H33.6722Z" fill="#540000"/>
<path d="M37.8907 84.3391V88.5217H42.1093V84.3391H37.8907Z" fill="#540000"/>
<path d="M37.8907 80.1564V84.3391H42.1093V80.1564H37.8907Z" fill="#540000"/>
<path d="M37.8907 88.4966V92.6793H42.1093V88.4966H37.8907Z" fill="#540000"/>
<path d="M42.1093 84.3391V88.5217H46.3278V84.3391H42.1093Z" fill="#540000"/>
</g>
<defs>
<clipPath id="clip0_16_22612">
<rect width="171.139" height="80" fill="white" transform="translate(0 172) rotate(-90)"/>
</clipPath>
</defs>
</svg>
