<svg width="415" height="110" viewBox="0 0 415 110" fill="none" xmlns="http://www.w3.org/2000/svg">
<g opacity="0.7" clip-path="url(#clip0_77_10225)">
<path d="M30 40H25V45H30V40Z" fill="#0074A7"/>
<path d="M30 60H25V65H30V60Z" fill="#0074A7"/>
<path d="M35 60H30V65H35V60Z" fill="#0074A7"/>
<path d="M35 55H30V60H35V55Z" fill="#0074A7"/>
<path d="M40 55H35V60H40V55Z" fill="#0074A7"/>
<path d="M40 50H35V55H40V50Z" fill="#0074A7"/>
<path d="M40 45H35V50H40V45Z" fill="#0074A7"/>
<path d="M35 45H30V50H35V45Z" fill="#0074A7"/>
<path d="M35 40H30V45H35V40Z" fill="#0074A7"/>
<path d="M25 40H20V45H25V40Z" fill="#0074A7"/>
<path d="M25 45H20V50H25V45Z" fill="#0074A7"/>
<path d="M25 55H20V60H25V55Z" fill="#0074A7"/>
<path d="M25 60H20V65H25V60Z" fill="#0074A7"/>
<path d="M20 50H15V55H20V50Z" fill="#0074A7"/>
<path d="M15 50H10V55H15V50Z" fill="#0074A7"/>
<path d="M20 55H15V60H20V55Z" fill="#0074A7"/>
<path d="M20 45H15V50H20V45Z" fill="#0074A7"/>
<path d="M30 35H25V40H30V35Z" fill="#0074A7"/>
<path d="M30 65H25V70H30V65Z" fill="#0074A7"/>
<path d="M45 50H40V55H45V50Z" fill="#0074A7"/>
<path d="M120 40H115V45H120V40Z" fill="#0074A7"/>
<path d="M120 60H115V65H120V60Z" fill="#0074A7"/>
<path d="M125 60H120V65H125V60Z" fill="#0074A7"/>
<path d="M125 55H120V60H125V55Z" fill="#0074A7"/>
<path d="M130 55H125V60H130V55Z" fill="#0074A7"/>
<path d="M130 50H125V55H130V50Z" fill="#0074A7"/>
<path d="M130 45H125V50H130V45Z" fill="#0074A7"/>
<path d="M125 45H120V50H125V45Z" fill="#0074A7"/>
<path d="M125 40H120V45H125V40Z" fill="#0074A7"/>
<path d="M115 40H110V45H115V40Z" fill="#0074A7"/>
<path d="M115 45H110V50H115V45Z" fill="#0074A7"/>
<path d="M115 55H110V60H115V55Z" fill="#0074A7"/>
<path d="M115 60H110V65H115V60Z" fill="#0074A7"/>
<path d="M110 50H105V55H110V50Z" fill="#0074A7"/>
<path d="M105 50H100V55H105V50Z" fill="#0074A7"/>
<path d="M110 55H105V60H110V55Z" fill="#0074A7"/>
<path d="M110 45H105V50H110V45Z" fill="#0074A7"/>
<path d="M120 35H115V40H120V35Z" fill="#0074A7"/>
<path d="M120 65H115V70H120V65Z" fill="#0074A7"/>
<path d="M135 50H130V55H135V50Z" fill="#0074A7"/>
<path d="M210 40H205V45H210V40Z" fill="#0074A7"/>
<path d="M210 60H205V65H210V60Z" fill="#0074A7"/>
<path d="M215 60H210V65H215V60Z" fill="#0074A7"/>
<path d="M215 55H210V60H215V55Z" fill="#0074A7"/>
<path d="M220 55H215V60H220V55Z" fill="#0074A7"/>
<path d="M220 50H215V55H220V50Z" fill="#0074A7"/>
<path d="M220 45H215V50H220V45Z" fill="#0074A7"/>
<path d="M215 45H210V50H215V45Z" fill="#0074A7"/>
<path d="M215 40H210V45H215V40Z" fill="#0074A7"/>
<path d="M205 40H200V45H205V40Z" fill="#0074A7"/>
<path d="M205 45H200V50H205V45Z" fill="#0074A7"/>
<path d="M205 55H200V60H205V55Z" fill="#0074A7"/>
<path d="M205 60H200V65H205V60Z" fill="#0074A7"/>
<path d="M200 50H195V55H200V50Z" fill="#0074A7"/>
<path d="M195 50H190V55H195V50Z" fill="#0074A7"/>
<path d="M200 55H195V60H200V55Z" fill="#0074A7"/>
<path d="M200 45H195V50H200V45Z" fill="#0074A7"/>
<path d="M210 35H205V40H210V35Z" fill="#0074A7"/>
<path d="M210 65H205V70H210V65Z" fill="#0074A7"/>
<path d="M225 50H220V55H225V50Z" fill="#0074A7"/>
<path d="M300 40H295V45H300V40Z" fill="#0074A7"/>
<path d="M300 60H295V65H300V60Z" fill="#0074A7"/>
<path d="M305 60H300V65H305V60Z" fill="#0074A7"/>
<path d="M305 55H300V60H305V55Z" fill="#0074A7"/>
<path d="M310 55H305V60H310V55Z" fill="#0074A7"/>
<path d="M310 50H305V55H310V50Z" fill="#0074A7"/>
<path d="M310 45H305V50H310V45Z" fill="#0074A7"/>
<path d="M305 45H300V50H305V45Z" fill="#0074A7"/>
<path d="M305 40H300V45H305V40Z" fill="#0074A7"/>
<path d="M295 40H290V45H295V40Z" fill="#0074A7"/>
<path d="M295 45H290V50H295V45Z" fill="#0074A7"/>
<path d="M295 55H290V60H295V55Z" fill="#0074A7"/>
<path d="M295 60H290V65H295V60Z" fill="#0074A7"/>
<path d="M290 50H285V55H290V50Z" fill="#0074A7"/>
<path d="M285 50H280V55H285V50Z" fill="#0074A7"/>
<path d="M290 55H285V60H290V55Z" fill="#0074A7"/>
<path d="M290 45H285V50H290V45Z" fill="#0074A7"/>
<path d="M300 35H295V40H300V35Z" fill="#0074A7"/>
<path d="M300 65H295V70H300V65Z" fill="#0074A7"/>
<path d="M315 50H310V55H315V50Z" fill="#0074A7"/>
<path d="M390 40H385V45H390V40Z" fill="#0074A7"/>
<path d="M390 60H385V65H390V60Z" fill="#0074A7"/>
<path d="M395 60H390V65H395V60Z" fill="#0074A7"/>
<path d="M395 55H390V60H395V55Z" fill="#0074A7"/>
<path d="M400 55H395V60H400V55Z" fill="#0074A7"/>
<path d="M400 50H395V55H400V50Z" fill="#0074A7"/>
<path d="M400 45H395V50H400V45Z" fill="#0074A7"/>
<path d="M395 45H390V50H395V45Z" fill="#0074A7"/>
<path d="M395 40H390V45H395V40Z" fill="#0074A7"/>
<path d="M385 40H380V45H385V40Z" fill="#0074A7"/>
<path d="M385 45H380V50H385V45Z" fill="#0074A7"/>
<path d="M385 55H380V60H385V55Z" fill="#0074A7"/>
<path d="M385 60H380V65H385V60Z" fill="#0074A7"/>
<path d="M380 50H375V55H380V50Z" fill="#0074A7"/>
<path d="M375 50H370V55H375V50Z" fill="#0074A7"/>
<path d="M380 55H375V60H380V55Z" fill="#0074A7"/>
<path d="M380 45H375V50H380V45Z" fill="#0074A7"/>
<path d="M390 35H385V40H390V35Z" fill="#0074A7"/>
<path d="M390 65H385V70H390V65Z" fill="#0074A7"/>
<path d="M405 50H400V55H405V50Z" fill="#0074A7"/>
<path d="M30 105H25V110H30V105Z" fill="#15CEF5"/>
<path d="M35 50H30V55H35V50Z" fill="#15CEF5"/>
<path d="M30 55H25V60H30V55Z" fill="#15CEF5"/>
<path d="M25 50H20V55H25V50Z" fill="#15CEF5"/>
<path d="M30 45H25V50H30V45Z" fill="#15CEF5"/>
<path d="M30 0L25 0V5H30V0Z" fill="#15CEF5"/>
<path d="M120 105H115V110H120V105Z" fill="#15CEF5"/>
<path d="M125 50H120V55H125V50Z" fill="#15CEF5"/>
<path d="M120 55H115V60H120V55Z" fill="#15CEF5"/>
<path d="M115 50H110V55H115V50Z" fill="#15CEF5"/>
<path d="M120 45H115V50H120V45Z" fill="#15CEF5"/>
<path d="M120 0L115 0V5H120V0Z" fill="#15CEF5"/>
<path d="M75 50H70V55H75V50Z" fill="#15CEF5"/>
<path d="M75 85H70V90H75V85Z" fill="#15CEF5"/>
<path d="M75 15H70V20H75V15Z" fill="#15CEF5"/>
<path d="M210 105H205V110H210V105Z" fill="#15CEF5"/>
<path d="M215 50H210V55H215V50Z" fill="#15CEF5"/>
<path d="M210 55H205V60H210V55Z" fill="#15CEF5"/>
<path d="M205 50H200V55H205V50Z" fill="#15CEF5"/>
<path d="M210 45H205V50H210V45Z" fill="#15CEF5"/>
<path d="M210 0L205 0V5H210V0Z" fill="#15CEF5"/>
<path d="M165 50H160V55H165V50Z" fill="#15CEF5"/>
<path d="M165 85H160V90H165V85Z" fill="#15CEF5"/>
<path d="M165 15H160V20H165V15Z" fill="#15CEF5"/>
<path d="M300 105H295V110H300V105Z" fill="#15CEF5"/>
<path d="M305 50H300V55H305V50Z" fill="#15CEF5"/>
<path d="M300 55H295V60H300V55Z" fill="#15CEF5"/>
<path d="M295 50H290V55H295V50Z" fill="#15CEF5"/>
<path d="M300 45H295V50H300V45Z" fill="#15CEF5"/>
<path d="M300 0L295 0V5H300V0Z" fill="#15CEF5"/>
<path d="M255 50H250V55H255V50Z" fill="#15CEF5"/>
<path d="M255 85H250V90H255V85Z" fill="#15CEF5"/>
<path d="M255 15H250V20H255V15Z" fill="#15CEF5"/>
<path d="M390 105H385V110H390V105Z" fill="#15CEF5"/>
<path d="M395 50H390V55H395V50Z" fill="#15CEF5"/>
<path d="M390 55H385V60H390V55Z" fill="#15CEF5"/>
<path d="M385 50H380V55H385V50Z" fill="#15CEF5"/>
<path d="M390 45H385V50H390V45Z" fill="#15CEF5"/>
<path d="M390 0L385 0V5H390V0Z" fill="#15CEF5"/>
<path d="M345 50H340V55H345V50Z" fill="#15CEF5"/>
<path d="M345 85H340V90H345V85Z" fill="#15CEF5"/>
<path d="M345 15H340V20H345V15Z" fill="#15CEF5"/>
<path d="M5 50H0L0 55H5V50Z" fill="#002572"/>
<path d="M10 50H5V55H10V50Z" fill="#002572"/>
<path d="M10 45H5V50H10V45Z" fill="#002572"/>
<path d="M15 45H10V50H15V45Z" fill="#002572"/>
<path d="M10 40H5V45H10V40Z" fill="#002572"/>
<path d="M15 40H10V45H15V40Z" fill="#002572"/>
<path d="M20 40H15V45H20V40Z" fill="#002572"/>
<path d="M40 40H35V45H40V40Z" fill="#002572"/>
<path d="M40 60H35V65H40V60Z" fill="#002572"/>
<path d="M20 60H15V65H20V60Z" fill="#002572"/>
<path d="M20 35H15V40H20V35Z" fill="#002572"/>
<path d="M20 30H15V35H20V30Z" fill="#002572"/>
<path d="M25 35H20V40H25V35Z" fill="#002572"/>
<path d="M25 30H20V35H25V30Z" fill="#002572"/>
<path d="M30 50H25V55H30V50Z" fill="#002572"/>
<path d="M30 30H25V35H30V30Z" fill="#002572"/>
<path d="M30 25H25V30H30V25Z" fill="#002572"/>
<path d="M30 75H25V80H30V75Z" fill="#002572"/>
<path d="M35 35H30V40H35V35Z" fill="#002572"/>
<path d="M35 30H30V35H35V30Z" fill="#002572"/>
<path d="M40 35H35V40H40V35Z" fill="#002572"/>
<path d="M40 30H35V35H40V30Z" fill="#002572"/>
<path d="M20 65H15V70H20V65Z" fill="#002572"/>
<path d="M20 70H15V75H20V70Z" fill="#002572"/>
<path d="M25 65H20V70H25V65Z" fill="#002572"/>
<path d="M25 70H20V75H25V70Z" fill="#002572"/>
<path d="M30 70H25V75H30V70Z" fill="#002572"/>
<path d="M35 65H30V70H35V65Z" fill="#002572"/>
<path d="M35 70H30V75H35V70Z" fill="#002572"/>
<path d="M40 65H35V70H40V65Z" fill="#002572"/>
<path d="M40 70H35V75H40V70Z" fill="#002572"/>
<path d="M10 55H5V60H10V55Z" fill="#002572"/>
<path d="M15 55H10V60H15V55Z" fill="#002572"/>
<path d="M10 60H5V65H10V60Z" fill="#002572"/>
<path d="M15 60H10V65H15V60Z" fill="#002572"/>
<path d="M55 50H50V55H55V50Z" fill="#002572"/>
<path d="M50 50H45V55H50V50Z" fill="#002572"/>
<path d="M50 45H45V50H50V45Z" fill="#002572"/>
<path d="M45 45H40V50H45V45Z" fill="#002572"/>
<path d="M50 40H45V45H50V40Z" fill="#002572"/>
<path d="M45 40H40V45H45V40Z" fill="#002572"/>
<path d="M50 55H45V60H50V55Z" fill="#002572"/>
<path d="M45 55H40V60H45V55Z" fill="#002572"/>
<path d="M50 60H45V65H50V60Z" fill="#002572"/>
<path d="M45 60H40V65H45V60Z" fill="#002572"/>
<path d="M75 0L70 0V5H75V0Z" fill="#002572"/>
<path d="M75 5H70V10H75V5Z" fill="#002572"/>
<path d="M70 5H65V10H70V5Z" fill="#002572"/>
<path d="M80 5H75V10H80V5Z" fill="#002572"/>
<path d="M75 10H70V15H75V10Z" fill="#002572"/>
<path d="M70 10H65V15H70V10Z" fill="#002572"/>
<path d="M80 10H75V15H80V10Z" fill="#002572"/>
<path d="M70 15H65V20H70V15Z" fill="#002572"/>
<path d="M80 15H75V20H80V15Z" fill="#002572"/>
<path d="M75 20H70V25H75V20Z" fill="#002572"/>
<path d="M70 20H65V25H70V20Z" fill="#002572"/>
<path d="M65 10H60V15H65V10Z" fill="#002572"/>
<path d="M65 15H60V20H65V15Z" fill="#002572"/>
<path d="M65 20H60V25H65V20Z" fill="#002572"/>
<path d="M85 10H80V15H85V10Z" fill="#002572"/>
<path d="M85 15H80V20H85V15Z" fill="#002572"/>
<path d="M85 20H80V25H85V20Z" fill="#002572"/>
<path d="M90 25H85V30H90V25Z" fill="#002572"/>
<path d="M90 30H85V35H90V30Z" fill="#002572"/>
<path d="M90 35H85V40H90V35Z" fill="#002572"/>
<path d="M95 20H90V25H95V20Z" fill="#002572"/>
<path d="M95 25H90V30H95V25Z" fill="#002572"/>
<path d="M95 30H90V35H95V30Z" fill="#002572"/>
<path d="M100 15H95V20H100V15Z" fill="#002572"/>
<path d="M105 10H100V15H105V10Z" fill="#002572"/>
<path d="M100 20H95V25H100V20Z" fill="#002572"/>
<path d="M100 25H95V30H100V25Z" fill="#002572"/>
<path d="M60 25H55V30H60V25Z" fill="#002572"/>
<path d="M60 30H55V35H60V30Z" fill="#002572"/>
<path d="M60 35H55V40H60V35Z" fill="#002572"/>
<path d="M65 40H60V45H65V40Z" fill="#002572"/>
<path d="M85 40H80V45H85V40Z" fill="#002572"/>
<path d="M85 60H80V65H85V60Z" fill="#002572"/>
<path d="M65 60H60V65H65V60Z" fill="#002572"/>
<path d="M55 20H50V25H55V20Z" fill="#002572"/>
<path d="M55 25H50V30H55V25Z" fill="#002572"/>
<path d="M55 30H50V35H55V30Z" fill="#002572"/>
<path d="M50 15H45V20H50V15Z" fill="#002572"/>
<path d="M45 10H40V15H45V10Z" fill="#002572"/>
<path d="M50 20H45V25H50V20Z" fill="#002572"/>
<path d="M50 25H45V30H50V25Z" fill="#002572"/>
<path d="M80 20H75V25H80V20Z" fill="#002572"/>
<path d="M75 25H70V30H75V25Z" fill="#002572"/>
<path d="M75 30H70V35H75V30Z" fill="#002572"/>
<path d="M75 35H70V40H75V35Z" fill="#002572"/>
<path d="M70 25H65V30H70V25Z" fill="#002572"/>
<path d="M80 25H75V30H80V25Z" fill="#002572"/>
<path d="M75 100H70V105H75V100Z" fill="#002572"/>
<path d="M75 95H70V100H75V95Z" fill="#002572"/>
<path d="M70 95H65V100H70V95Z" fill="#002572"/>
<path d="M80 95H75V100H80V95Z" fill="#002572"/>
<path d="M75 90H70V95H75V90Z" fill="#002572"/>
<path d="M70 90H65V95H70V90Z" fill="#002572"/>
<path d="M80 90H75V95H80V90Z" fill="#002572"/>
<path d="M70 85H65V90H70V85Z" fill="#002572"/>
<path d="M80 85H75V90H80V85Z" fill="#002572"/>
<path d="M75 80H70V85H75V80Z" fill="#002572"/>
<path d="M70 80H65V85H70V80Z" fill="#002572"/>
<path d="M65 90H60V95H65V90Z" fill="#002572"/>
<path d="M65 85H60V90H65V85Z" fill="#002572"/>
<path d="M65 80H60V85H65V80Z" fill="#002572"/>
<path d="M85 90H80V95H85V90Z" fill="#002572"/>
<path d="M85 85H80V90H85V85Z" fill="#002572"/>
<path d="M85 80H80V85H85V80Z" fill="#002572"/>
<path d="M90 75H85V80H90V75Z" fill="#002572"/>
<path d="M90 70H85V75H90V70Z" fill="#002572"/>
<path d="M90 65H85V70H90V65Z" fill="#002572"/>
<path d="M95 80H90V85H95V80Z" fill="#002572"/>
<path d="M95 75H90V80H95V75Z" fill="#002572"/>
<path d="M95 70H90V75H95V70Z" fill="#002572"/>
<path d="M100 85H95V90H100V85Z" fill="#002572"/>
<path d="M105 90H100V95H105V90Z" fill="#002572"/>
<path d="M100 80H95V85H100V80Z" fill="#002572"/>
<path d="M100 75H95V80H100V75Z" fill="#002572"/>
<path d="M60 75H55V80H60V75Z" fill="#002572"/>
<path d="M60 70H55V75H60V70Z" fill="#002572"/>
<path d="M60 65H55V70H60V65Z" fill="#002572"/>
<path d="M55 80H50V85H55V80Z" fill="#002572"/>
<path d="M55 75H50V80H55V75Z" fill="#002572"/>
<path d="M55 70H50V75H55V70Z" fill="#002572"/>
<path d="M50 85H45V90H50V85Z" fill="#002572"/>
<path d="M45 90H40V95H45V90Z" fill="#002572"/>
<path d="M50 80H45V85H50V80Z" fill="#002572"/>
<path d="M50 75H45V80H50V75Z" fill="#002572"/>
<path d="M80 80H75V85H80V80Z" fill="#002572"/>
<path d="M75 75H70V80H75V75Z" fill="#002572"/>
<path d="M75 70H70V75H75V70Z" fill="#002572"/>
<path d="M75 65H70V70H75V65Z" fill="#002572"/>
<path d="M70 50H65V55H70V50Z" fill="#002572"/>
<path d="M80 50H75V55H80V50Z" fill="#002572"/>
<path d="M75 55H70V60H75V55Z" fill="#002572"/>
<path d="M75 45H70V50H75V45Z" fill="#002572"/>
<path d="M95 50H90V55H95V50Z" fill="#002572"/>
<path d="M100 50H95V55H100V50Z" fill="#002572"/>
<path d="M100 45H95V50H100V45Z" fill="#002572"/>
<path d="M105 45H100V50H105V45Z" fill="#002572"/>
<path d="M100 40H95V45H100V40Z" fill="#002572"/>
<path d="M105 40H100V45H105V40Z" fill="#002572"/>
<path d="M110 40H105V45H110V40Z" fill="#002572"/>
<path d="M130 40H125V45H130V40Z" fill="#002572"/>
<path d="M130 60H125V65H130V60Z" fill="#002572"/>
<path d="M110 60H105V65H110V60Z" fill="#002572"/>
<path d="M110 35H105V40H110V35Z" fill="#002572"/>
<path d="M110 30H105V35H110V30Z" fill="#002572"/>
<path d="M115 35H110V40H115V35Z" fill="#002572"/>
<path d="M115 30H110V35H115V30Z" fill="#002572"/>
<path d="M120 50H115V55H120V50Z" fill="#002572"/>
<path d="M120 30H115V35H120V30Z" fill="#002572"/>
<path d="M120 25H115V30H120V25Z" fill="#002572"/>
<path d="M120 75H115V80H120V75Z" fill="#002572"/>
<path d="M125 35H120V40H125V35Z" fill="#002572"/>
<path d="M125 30H120V35H125V30Z" fill="#002572"/>
<path d="M130 35H125V40H130V35Z" fill="#002572"/>
<path d="M130 30H125V35H130V30Z" fill="#002572"/>
<path d="M110 65H105V70H110V65Z" fill="#002572"/>
<path d="M110 70H105V75H110V70Z" fill="#002572"/>
<path d="M115 65H110V70H115V65Z" fill="#002572"/>
<path d="M115 70H110V75H115V70Z" fill="#002572"/>
<path d="M120 70H115V75H120V70Z" fill="#002572"/>
<path d="M125 65H120V70H125V65Z" fill="#002572"/>
<path d="M125 70H120V75H125V70Z" fill="#002572"/>
<path d="M130 65H125V70H130V65Z" fill="#002572"/>
<path d="M130 70H125V75H130V70Z" fill="#002572"/>
<path d="M100 55H95V60H100V55Z" fill="#002572"/>
<path d="M105 55H100V60H105V55Z" fill="#002572"/>
<path d="M100 60H95V65H100V60Z" fill="#002572"/>
<path d="M105 60H100V65H105V60Z" fill="#002572"/>
<path d="M145 50H140V55H145V50Z" fill="#002572"/>
<path d="M140 50H135V55H140V50Z" fill="#002572"/>
<path d="M140 45H135V50H140V45Z" fill="#002572"/>
<path d="M135 45H130V50H135V45Z" fill="#002572"/>
<path d="M140 40H135V45H140V40Z" fill="#002572"/>
<path d="M135 40H130V45H135V40Z" fill="#002572"/>
<path d="M140 55H135V60H140V55Z" fill="#002572"/>
<path d="M135 55H130V60H135V55Z" fill="#002572"/>
<path d="M140 60H135V65H140V60Z" fill="#002572"/>
<path d="M135 60H130V65H135V60Z" fill="#002572"/>
<path d="M70 45H65V50H70V45Z" fill="#002572"/>
<path d="M70 55H65V60H70V55Z" fill="#002572"/>
<path d="M80 55H75V60H80V55Z" fill="#002572"/>
<path d="M80 45H75V50H80V45Z" fill="#002572"/>
<path d="M70 75H65V80H70V75Z" fill="#002572"/>
<path d="M80 75H75V80H80V75Z" fill="#002572"/>
<path d="M165 0L160 0V5H165V0Z" fill="#002572"/>
<path d="M165 5H160V10H165V5Z" fill="#002572"/>
<path d="M160 5H155V10H160V5Z" fill="#002572"/>
<path d="M170 5H165V10H170V5Z" fill="#002572"/>
<path d="M165 10H160V15H165V10Z" fill="#002572"/>
<path d="M160 10H155V15H160V10Z" fill="#002572"/>
<path d="M170 10H165V15H170V10Z" fill="#002572"/>
<path d="M160 15H155V20H160V15Z" fill="#002572"/>
<path d="M170 15H165V20H170V15Z" fill="#002572"/>
<path d="M165 20H160V25H165V20Z" fill="#002572"/>
<path d="M160 20H155V25H160V20Z" fill="#002572"/>
<path d="M155 10H150V15H155V10Z" fill="#002572"/>
<path d="M155 15H150V20H155V15Z" fill="#002572"/>
<path d="M155 20H150V25H155V20Z" fill="#002572"/>
<path d="M175 10H170V15H175V10Z" fill="#002572"/>
<path d="M175 15H170V20H175V15Z" fill="#002572"/>
<path d="M175 20H170V25H175V20Z" fill="#002572"/>
<path d="M180 25H175V30H180V25Z" fill="#002572"/>
<path d="M180 30H175V35H180V30Z" fill="#002572"/>
<path d="M180 35H175V40H180V35Z" fill="#002572"/>
<path d="M185 20H180V25H185V20Z" fill="#002572"/>
<path d="M185 25H180V30H185V25Z" fill="#002572"/>
<path d="M185 30H180V35H185V30Z" fill="#002572"/>
<path d="M190 15H185V20H190V15Z" fill="#002572"/>
<path d="M195 10H190V15H195V10Z" fill="#002572"/>
<path d="M190 20H185V25H190V20Z" fill="#002572"/>
<path d="M190 25H185V30H190V25Z" fill="#002572"/>
<path d="M150 25H145V30H150V25Z" fill="#002572"/>
<path d="M150 30H145V35H150V30Z" fill="#002572"/>
<path d="M150 35H145V40H150V35Z" fill="#002572"/>
<path d="M155 40H150V45H155V40Z" fill="#002572"/>
<path d="M175 40H170V45H175V40Z" fill="#002572"/>
<path d="M175 60H170V65H175V60Z" fill="#002572"/>
<path d="M155 60H150V65H155V60Z" fill="#002572"/>
<path d="M145 20H140V25H145V20Z" fill="#002572"/>
<path d="M145 25H140V30H145V25Z" fill="#002572"/>
<path d="M145 30H140V35H145V30Z" fill="#002572"/>
<path d="M140 15H135V20H140V15Z" fill="#002572"/>
<path d="M135 10H130V15H135V10Z" fill="#002572"/>
<path d="M140 20H135V25H140V20Z" fill="#002572"/>
<path d="M140 25H135V30H140V25Z" fill="#002572"/>
<path d="M170 20H165V25H170V20Z" fill="#002572"/>
<path d="M165 25H160V30H165V25Z" fill="#002572"/>
<path d="M165 30H160V35H165V30Z" fill="#002572"/>
<path d="M165 35H160V40H165V35Z" fill="#002572"/>
<path d="M160 25H155V30H160V25Z" fill="#002572"/>
<path d="M170 25H165V30H170V25Z" fill="#002572"/>
<path d="M165 100H160V105H165V100Z" fill="#002572"/>
<path d="M165 95H160V100H165V95Z" fill="#002572"/>
<path d="M160 95H155V100H160V95Z" fill="#002572"/>
<path d="M170 95H165V100H170V95Z" fill="#002572"/>
<path d="M165 90H160V95H165V90Z" fill="#002572"/>
<path d="M160 90H155V95H160V90Z" fill="#002572"/>
<path d="M170 90H165V95H170V90Z" fill="#002572"/>
<path d="M160 85H155V90H160V85Z" fill="#002572"/>
<path d="M170 85H165V90H170V85Z" fill="#002572"/>
<path d="M165 80H160V85H165V80Z" fill="#002572"/>
<path d="M160 80H155V85H160V80Z" fill="#002572"/>
<path d="M155 90H150V95H155V90Z" fill="#002572"/>
<path d="M155 85H150V90H155V85Z" fill="#002572"/>
<path d="M155 80H150V85H155V80Z" fill="#002572"/>
<path d="M175 90H170V95H175V90Z" fill="#002572"/>
<path d="M175 85H170V90H175V85Z" fill="#002572"/>
<path d="M175 80H170V85H175V80Z" fill="#002572"/>
<path d="M180 75H175V80H180V75Z" fill="#002572"/>
<path d="M180 70H175V75H180V70Z" fill="#002572"/>
<path d="M180 65H175V70H180V65Z" fill="#002572"/>
<path d="M185 80H180V85H185V80Z" fill="#002572"/>
<path d="M185 75H180V80H185V75Z" fill="#002572"/>
<path d="M185 70H180V75H185V70Z" fill="#002572"/>
<path d="M190 85H185V90H190V85Z" fill="#002572"/>
<path d="M195 90H190V95H195V90Z" fill="#002572"/>
<path d="M190 80H185V85H190V80Z" fill="#002572"/>
<path d="M190 75H185V80H190V75Z" fill="#002572"/>
<path d="M150 75H145V80H150V75Z" fill="#002572"/>
<path d="M150 70H145V75H150V70Z" fill="#002572"/>
<path d="M150 65H145V70H150V65Z" fill="#002572"/>
<path d="M145 80H140V85H145V80Z" fill="#002572"/>
<path d="M145 75H140V80H145V75Z" fill="#002572"/>
<path d="M145 70H140V75H145V70Z" fill="#002572"/>
<path d="M140 85H135V90H140V85Z" fill="#002572"/>
<path d="M135 90H130V95H135V90Z" fill="#002572"/>
<path d="M140 80H135V85H140V80Z" fill="#002572"/>
<path d="M140 75H135V80H140V75Z" fill="#002572"/>
<path d="M170 80H165V85H170V80Z" fill="#002572"/>
<path d="M165 75H160V80H165V75Z" fill="#002572"/>
<path d="M165 70H160V75H165V70Z" fill="#002572"/>
<path d="M165 65H160V70H165V65Z" fill="#002572"/>
<path d="M160 50H155V55H160V50Z" fill="#002572"/>
<path d="M170 50H165V55H170V50Z" fill="#002572"/>
<path d="M165 55H160V60H165V55Z" fill="#002572"/>
<path d="M165 45H160V50H165V45Z" fill="#002572"/>
<path d="M185 50H180V55H185V50Z" fill="#002572"/>
<path d="M190 50H185V55H190V50Z" fill="#002572"/>
<path d="M190 45H185V50H190V45Z" fill="#002572"/>
<path d="M195 45H190V50H195V45Z" fill="#002572"/>
<path d="M190 40H185V45H190V40Z" fill="#002572"/>
<path d="M195 40H190V45H195V40Z" fill="#002572"/>
<path d="M200 40H195V45H200V40Z" fill="#002572"/>
<path d="M220 40H215V45H220V40Z" fill="#002572"/>
<path d="M220 60H215V65H220V60Z" fill="#002572"/>
<path d="M200 60H195V65H200V60Z" fill="#002572"/>
<path d="M200 35H195V40H200V35Z" fill="#002572"/>
<path d="M200 30H195V35H200V30Z" fill="#002572"/>
<path d="M205 35H200V40H205V35Z" fill="#002572"/>
<path d="M205 30H200V35H205V30Z" fill="#002572"/>
<path d="M210 50H205V55H210V50Z" fill="#002572"/>
<path d="M210 30H205V35H210V30Z" fill="#002572"/>
<path d="M210 25H205V30H210V25Z" fill="#002572"/>
<path d="M210 75H205V80H210V75Z" fill="#002572"/>
<path d="M215 35H210V40H215V35Z" fill="#002572"/>
<path d="M215 30H210V35H215V30Z" fill="#002572"/>
<path d="M220 35H215V40H220V35Z" fill="#002572"/>
<path d="M220 30H215V35H220V30Z" fill="#002572"/>
<path d="M200 65H195V70H200V65Z" fill="#002572"/>
<path d="M200 70H195V75H200V70Z" fill="#002572"/>
<path d="M205 65H200V70H205V65Z" fill="#002572"/>
<path d="M205 70H200V75H205V70Z" fill="#002572"/>
<path d="M210 70H205V75H210V70Z" fill="#002572"/>
<path d="M215 65H210V70H215V65Z" fill="#002572"/>
<path d="M215 70H210V75H215V70Z" fill="#002572"/>
<path d="M220 65H215V70H220V65Z" fill="#002572"/>
<path d="M220 70H215V75H220V70Z" fill="#002572"/>
<path d="M190 55H185V60H190V55Z" fill="#002572"/>
<path d="M195 55H190V60H195V55Z" fill="#002572"/>
<path d="M190 60H185V65H190V60Z" fill="#002572"/>
<path d="M195 60H190V65H195V60Z" fill="#002572"/>
<path d="M235 50H230V55H235V50Z" fill="#002572"/>
<path d="M230 50H225V55H230V50Z" fill="#002572"/>
<path d="M230 45H225V50H230V45Z" fill="#002572"/>
<path d="M225 45H220V50H225V45Z" fill="#002572"/>
<path d="M230 40H225V45H230V40Z" fill="#002572"/>
<path d="M225 40H220V45H225V40Z" fill="#002572"/>
<path d="M230 55H225V60H230V55Z" fill="#002572"/>
<path d="M225 55H220V60H225V55Z" fill="#002572"/>
<path d="M230 60H225V65H230V60Z" fill="#002572"/>
<path d="M225 60H220V65H225V60Z" fill="#002572"/>
<path d="M160 45H155V50H160V45Z" fill="#002572"/>
<path d="M160 55H155V60H160V55Z" fill="#002572"/>
<path d="M170 55H165V60H170V55Z" fill="#002572"/>
<path d="M170 45H165V50H170V45Z" fill="#002572"/>
<path d="M160 75H155V80H160V75Z" fill="#002572"/>
<path d="M170 75H165V80H170V75Z" fill="#002572"/>
<path d="M255 0L250 0V5H255V0Z" fill="#002572"/>
<path d="M255 5H250V10H255V5Z" fill="#002572"/>
<path d="M250 5H245V10H250V5Z" fill="#002572"/>
<path d="M260 5H255V10H260V5Z" fill="#002572"/>
<path d="M255 10H250V15H255V10Z" fill="#002572"/>
<path d="M250 10H245V15H250V10Z" fill="#002572"/>
<path d="M260 10H255V15H260V10Z" fill="#002572"/>
<path d="M250 15H245V20H250V15Z" fill="#002572"/>
<path d="M260 15H255V20H260V15Z" fill="#002572"/>
<path d="M255 20H250V25H255V20Z" fill="#002572"/>
<path d="M250 20H245V25H250V20Z" fill="#002572"/>
<path d="M245 10H240V15H245V10Z" fill="#002572"/>
<path d="M245 15H240V20H245V15Z" fill="#002572"/>
<path d="M245 20H240V25H245V20Z" fill="#002572"/>
<path d="M265 10H260V15H265V10Z" fill="#002572"/>
<path d="M265 15H260V20H265V15Z" fill="#002572"/>
<path d="M265 20H260V25H265V20Z" fill="#002572"/>
<path d="M270 25H265V30H270V25Z" fill="#002572"/>
<path d="M270 30H265V35H270V30Z" fill="#002572"/>
<path d="M270 35H265V40H270V35Z" fill="#002572"/>
<path d="M275 20H270V25H275V20Z" fill="#002572"/>
<path d="M275 25H270V30H275V25Z" fill="#002572"/>
<path d="M275 30H270V35H275V30Z" fill="#002572"/>
<path d="M280 15H275V20H280V15Z" fill="#002572"/>
<path d="M285 10H280V15H285V10Z" fill="#002572"/>
<path d="M280 20H275V25H280V20Z" fill="#002572"/>
<path d="M280 25H275V30H280V25Z" fill="#002572"/>
<path d="M240 25H235V30H240V25Z" fill="#002572"/>
<path d="M240 30H235V35H240V30Z" fill="#002572"/>
<path d="M240 35H235V40H240V35Z" fill="#002572"/>
<path d="M245 40H240V45H245V40Z" fill="#002572"/>
<path d="M265 40H260V45H265V40Z" fill="#002572"/>
<path d="M265 60H260V65H265V60Z" fill="#002572"/>
<path d="M245 60H240V65H245V60Z" fill="#002572"/>
<path d="M235 20H230V25H235V20Z" fill="#002572"/>
<path d="M235 25H230V30H235V25Z" fill="#002572"/>
<path d="M235 30H230V35H235V30Z" fill="#002572"/>
<path d="M230 15H225V20H230V15Z" fill="#002572"/>
<path d="M225 10H220V15H225V10Z" fill="#002572"/>
<path d="M230 20H225V25H230V20Z" fill="#002572"/>
<path d="M230 25H225V30H230V25Z" fill="#002572"/>
<path d="M260 20H255V25H260V20Z" fill="#002572"/>
<path d="M255 25H250V30H255V25Z" fill="#002572"/>
<path d="M255 30H250V35H255V30Z" fill="#002572"/>
<path d="M255 35H250V40H255V35Z" fill="#002572"/>
<path d="M250 25H245V30H250V25Z" fill="#002572"/>
<path d="M260 25H255V30H260V25Z" fill="#002572"/>
<path d="M255 100H250V105H255V100Z" fill="#002572"/>
<path d="M255 95H250V100H255V95Z" fill="#002572"/>
<path d="M250 95H245V100H250V95Z" fill="#002572"/>
<path d="M260 95H255V100H260V95Z" fill="#002572"/>
<path d="M255 90H250V95H255V90Z" fill="#002572"/>
<path d="M250 90H245V95H250V90Z" fill="#002572"/>
<path d="M260 90H255V95H260V90Z" fill="#002572"/>
<path d="M250 85H245V90H250V85Z" fill="#002572"/>
<path d="M260 85H255V90H260V85Z" fill="#002572"/>
<path d="M255 80H250V85H255V80Z" fill="#002572"/>
<path d="M250 80H245V85H250V80Z" fill="#002572"/>
<path d="M245 90H240V95H245V90Z" fill="#002572"/>
<path d="M245 85H240V90H245V85Z" fill="#002572"/>
<path d="M245 80H240V85H245V80Z" fill="#002572"/>
<path d="M265 90H260V95H265V90Z" fill="#002572"/>
<path d="M265 85H260V90H265V85Z" fill="#002572"/>
<path d="M265 80H260V85H265V80Z" fill="#002572"/>
<path d="M270 75H265V80H270V75Z" fill="#002572"/>
<path d="M270 70H265V75H270V70Z" fill="#002572"/>
<path d="M270 65H265V70H270V65Z" fill="#002572"/>
<path d="M275 80H270V85H275V80Z" fill="#002572"/>
<path d="M275 75H270V80H275V75Z" fill="#002572"/>
<path d="M275 70H270V75H275V70Z" fill="#002572"/>
<path d="M280 85H275V90H280V85Z" fill="#002572"/>
<path d="M285 90H280V95H285V90Z" fill="#002572"/>
<path d="M280 80H275V85H280V80Z" fill="#002572"/>
<path d="M280 75H275V80H280V75Z" fill="#002572"/>
<path d="M240 75H235V80H240V75Z" fill="#002572"/>
<path d="M240 70H235V75H240V70Z" fill="#002572"/>
<path d="M240 65H235V70H240V65Z" fill="#002572"/>
<path d="M235 80H230V85H235V80Z" fill="#002572"/>
<path d="M235 75H230V80H235V75Z" fill="#002572"/>
<path d="M235 70H230V75H235V70Z" fill="#002572"/>
<path d="M230 85H225V90H230V85Z" fill="#002572"/>
<path d="M225 90H220V95H225V90Z" fill="#002572"/>
<path d="M230 80H225V85H230V80Z" fill="#002572"/>
<path d="M230 75H225V80H230V75Z" fill="#002572"/>
<path d="M260 80H255V85H260V80Z" fill="#002572"/>
<path d="M255 75H250V80H255V75Z" fill="#002572"/>
<path d="M255 70H250V75H255V70Z" fill="#002572"/>
<path d="M255 65H250V70H255V65Z" fill="#002572"/>
<path d="M250 50H245V55H250V50Z" fill="#002572"/>
<path d="M260 50H255V55H260V50Z" fill="#002572"/>
<path d="M255 55H250V60H255V55Z" fill="#002572"/>
<path d="M255 45H250V50H255V45Z" fill="#002572"/>
<path d="M275 50H270V55H275V50Z" fill="#002572"/>
<path d="M280 50H275V55H280V50Z" fill="#002572"/>
<path d="M280 45H275V50H280V45Z" fill="#002572"/>
<path d="M285 45H280V50H285V45Z" fill="#002572"/>
<path d="M280 40H275V45H280V40Z" fill="#002572"/>
<path d="M285 40H280V45H285V40Z" fill="#002572"/>
<path d="M290 40H285V45H290V40Z" fill="#002572"/>
<path d="M310 40H305V45H310V40Z" fill="#002572"/>
<path d="M310 60H305V65H310V60Z" fill="#002572"/>
<path d="M290 60H285V65H290V60Z" fill="#002572"/>
<path d="M290 35H285V40H290V35Z" fill="#002572"/>
<path d="M290 30H285V35H290V30Z" fill="#002572"/>
<path d="M295 35H290V40H295V35Z" fill="#002572"/>
<path d="M295 30H290V35H295V30Z" fill="#002572"/>
<path d="M300 50H295V55H300V50Z" fill="#002572"/>
<path d="M300 30H295V35H300V30Z" fill="#002572"/>
<path d="M300 25H295V30H300V25Z" fill="#002572"/>
<path d="M300 75H295V80H300V75Z" fill="#002572"/>
<path d="M305 35H300V40H305V35Z" fill="#002572"/>
<path d="M305 30H300V35H305V30Z" fill="#002572"/>
<path d="M310 35H305V40H310V35Z" fill="#002572"/>
<path d="M310 30H305V35H310V30Z" fill="#002572"/>
<path d="M290 65H285V70H290V65Z" fill="#002572"/>
<path d="M290 70H285V75H290V70Z" fill="#002572"/>
<path d="M295 65H290V70H295V65Z" fill="#002572"/>
<path d="M295 70H290V75H295V70Z" fill="#002572"/>
<path d="M300 70H295V75H300V70Z" fill="#002572"/>
<path d="M305 65H300V70H305V65Z" fill="#002572"/>
<path d="M305 70H300V75H305V70Z" fill="#002572"/>
<path d="M310 65H305V70H310V65Z" fill="#002572"/>
<path d="M310 70H305V75H310V70Z" fill="#002572"/>
<path d="M280 55H275V60H280V55Z" fill="#002572"/>
<path d="M285 55H280V60H285V55Z" fill="#002572"/>
<path d="M280 60H275V65H280V60Z" fill="#002572"/>
<path d="M285 60H280V65H285V60Z" fill="#002572"/>
<path d="M325 50H320V55H325V50Z" fill="#002572"/>
<path d="M320 50H315V55H320V50Z" fill="#002572"/>
<path d="M320 45H315V50H320V45Z" fill="#002572"/>
<path d="M315 45H310V50H315V45Z" fill="#002572"/>
<path d="M320 40H315V45H320V40Z" fill="#002572"/>
<path d="M315 40H310V45H315V40Z" fill="#002572"/>
<path d="M320 55H315V60H320V55Z" fill="#002572"/>
<path d="M315 55H310V60H315V55Z" fill="#002572"/>
<path d="M320 60H315V65H320V60Z" fill="#002572"/>
<path d="M315 60H310V65H315V60Z" fill="#002572"/>
<path d="M250 45H245V50H250V45Z" fill="#002572"/>
<path d="M250 55H245V60H250V55Z" fill="#002572"/>
<path d="M260 55H255V60H260V55Z" fill="#002572"/>
<path d="M260 45H255V50H260V45Z" fill="#002572"/>
<path d="M250 75H245V80H250V75Z" fill="#002572"/>
<path d="M260 75H255V80H260V75Z" fill="#002572"/>
<path d="M345 0L340 0V5H345V0Z" fill="#002572"/>
<path d="M345 5H340V10H345V5Z" fill="#002572"/>
<path d="M340 5H335V10H340V5Z" fill="#002572"/>
<path d="M350 5H345V10H350V5Z" fill="#002572"/>
<path d="M345 10H340V15H345V10Z" fill="#002572"/>
<path d="M340 10H335V15H340V10Z" fill="#002572"/>
<path d="M350 10H345V15H350V10Z" fill="#002572"/>
<path d="M340 15H335V20H340V15Z" fill="#002572"/>
<path d="M350 15H345V20H350V15Z" fill="#002572"/>
<path d="M345 20H340V25H345V20Z" fill="#002572"/>
<path d="M340 20H335V25H340V20Z" fill="#002572"/>
<path d="M335 10H330V15H335V10Z" fill="#002572"/>
<path d="M335 15H330V20H335V15Z" fill="#002572"/>
<path d="M335 20H330V25H335V20Z" fill="#002572"/>
<path d="M355 10H350V15H355V10Z" fill="#002572"/>
<path d="M355 15H350V20H355V15Z" fill="#002572"/>
<path d="M355 20H350V25H355V20Z" fill="#002572"/>
<path d="M360 25H355V30H360V25Z" fill="#002572"/>
<path d="M360 30H355V35H360V30Z" fill="#002572"/>
<path d="M360 35H355V40H360V35Z" fill="#002572"/>
<path d="M365 20H360V25H365V20Z" fill="#002572"/>
<path d="M365 25H360V30H365V25Z" fill="#002572"/>
<path d="M365 30H360V35H365V30Z" fill="#002572"/>
<path d="M370 15H365V20H370V15Z" fill="#002572"/>
<path d="M375 10H370V15H375V10Z" fill="#002572"/>
<path d="M370 20H365V25H370V20Z" fill="#002572"/>
<path d="M370 25H365V30H370V25Z" fill="#002572"/>
<path d="M330 25H325V30H330V25Z" fill="#002572"/>
<path d="M330 30H325V35H330V30Z" fill="#002572"/>
<path d="M330 35H325V40H330V35Z" fill="#002572"/>
<path d="M335 40H330V45H335V40Z" fill="#002572"/>
<path d="M355 40H350V45H355V40Z" fill="#002572"/>
<path d="M355 60H350V65H355V60Z" fill="#002572"/>
<path d="M335 60H330V65H335V60Z" fill="#002572"/>
<path d="M325 20H320V25H325V20Z" fill="#002572"/>
<path d="M325 25H320V30H325V25Z" fill="#002572"/>
<path d="M325 30H320V35H325V30Z" fill="#002572"/>
<path d="M320 15H315V20H320V15Z" fill="#002572"/>
<path d="M315 10H310V15H315V10Z" fill="#002572"/>
<path d="M320 20H315V25H320V20Z" fill="#002572"/>
<path d="M320 25H315V30H320V25Z" fill="#002572"/>
<path d="M350 20H345V25H350V20Z" fill="#002572"/>
<path d="M345 25H340V30H345V25Z" fill="#002572"/>
<path d="M345 30H340V35H345V30Z" fill="#002572"/>
<path d="M345 35H340V40H345V35Z" fill="#002572"/>
<path d="M340 25H335V30H340V25Z" fill="#002572"/>
<path d="M350 25H345V30H350V25Z" fill="#002572"/>
<path d="M345 100H340V105H345V100Z" fill="#002572"/>
<path d="M345 95H340V100H345V95Z" fill="#002572"/>
<path d="M340 95H335V100H340V95Z" fill="#002572"/>
<path d="M350 95H345V100H350V95Z" fill="#002572"/>
<path d="M345 90H340V95H345V90Z" fill="#002572"/>
<path d="M340 90H335V95H340V90Z" fill="#002572"/>
<path d="M350 90H345V95H350V90Z" fill="#002572"/>
<path d="M340 85H335V90H340V85Z" fill="#002572"/>
<path d="M350 85H345V90H350V85Z" fill="#002572"/>
<path d="M345 80H340V85H345V80Z" fill="#002572"/>
<path d="M340 80H335V85H340V80Z" fill="#002572"/>
<path d="M335 90H330V95H335V90Z" fill="#002572"/>
<path d="M335 85H330V90H335V85Z" fill="#002572"/>
<path d="M335 80H330V85H335V80Z" fill="#002572"/>
<path d="M355 90H350V95H355V90Z" fill="#002572"/>
<path d="M355 85H350V90H355V85Z" fill="#002572"/>
<path d="M355 80H350V85H355V80Z" fill="#002572"/>
<path d="M360 75H355V80H360V75Z" fill="#002572"/>
<path d="M360 70H355V75H360V70Z" fill="#002572"/>
<path d="M360 65H355V70H360V65Z" fill="#002572"/>
<path d="M365 80H360V85H365V80Z" fill="#002572"/>
<path d="M365 75H360V80H365V75Z" fill="#002572"/>
<path d="M365 70H360V75H365V70Z" fill="#002572"/>
<path d="M370 85H365V90H370V85Z" fill="#002572"/>
<path d="M375 90H370V95H375V90Z" fill="#002572"/>
<path d="M370 80H365V85H370V80Z" fill="#002572"/>
<path d="M370 75H365V80H370V75Z" fill="#002572"/>
<path d="M330 75H325V80H330V75Z" fill="#002572"/>
<path d="M330 70H325V75H330V70Z" fill="#002572"/>
<path d="M330 65H325V70H330V65Z" fill="#002572"/>
<path d="M325 80H320V85H325V80Z" fill="#002572"/>
<path d="M325 75H320V80H325V75Z" fill="#002572"/>
<path d="M325 70H320V75H325V70Z" fill="#002572"/>
<path d="M320 85H315V90H320V85Z" fill="#002572"/>
<path d="M315 90H310V95H315V90Z" fill="#002572"/>
<path d="M320 80H315V85H320V80Z" fill="#002572"/>
<path d="M320 75H315V80H320V75Z" fill="#002572"/>
<path d="M350 80H345V85H350V80Z" fill="#002572"/>
<path d="M345 75H340V80H345V75Z" fill="#002572"/>
<path d="M345 70H340V75H345V70Z" fill="#002572"/>
<path d="M345 65H340V70H345V65Z" fill="#002572"/>
<path d="M340 50H335V55H340V50Z" fill="#002572"/>
<path d="M350 50H345V55H350V50Z" fill="#002572"/>
<path d="M345 55H340V60H345V55Z" fill="#002572"/>
<path d="M345 45H340V50H345V45Z" fill="#002572"/>
<path d="M365 50H360V55H365V50Z" fill="#002572"/>
<path d="M370 50H365V55H370V50Z" fill="#002572"/>
<path d="M370 45H365V50H370V45Z" fill="#002572"/>
<path d="M375 45H370V50H375V45Z" fill="#002572"/>
<path d="M370 40H365V45H370V40Z" fill="#002572"/>
<path d="M375 40H370V45H375V40Z" fill="#002572"/>
<path d="M380 40H375V45H380V40Z" fill="#002572"/>
<path d="M400 40H395V45H400V40Z" fill="#002572"/>
<path d="M400 60H395V65H400V60Z" fill="#002572"/>
<path d="M380 60H375V65H380V60Z" fill="#002572"/>
<path d="M380 35H375V40H380V35Z" fill="#002572"/>
<path d="M380 30H375V35H380V30Z" fill="#002572"/>
<path d="M385 35H380V40H385V35Z" fill="#002572"/>
<path d="M385 30H380V35H385V30Z" fill="#002572"/>
<path d="M390 50H385V55H390V50Z" fill="#002572"/>
<path d="M390 30H385V35H390V30Z" fill="#002572"/>
<path d="M390 25H385V30H390V25Z" fill="#002572"/>
<path d="M390 75H385V80H390V75Z" fill="#002572"/>
<path d="M395 35H390V40H395V35Z" fill="#002572"/>
<path d="M395 30H390V35H395V30Z" fill="#002572"/>
<path d="M400 35H395V40H400V35Z" fill="#002572"/>
<path d="M400 30H395V35H400V30Z" fill="#002572"/>
<path d="M380 65H375V70H380V65Z" fill="#002572"/>
<path d="M380 70H375V75H380V70Z" fill="#002572"/>
<path d="M385 65H380V70H385V65Z" fill="#002572"/>
<path d="M385 70H380V75H385V70Z" fill="#002572"/>
<path d="M390 70H385V75H390V70Z" fill="#002572"/>
<path d="M395 65H390V70H395V65Z" fill="#002572"/>
<path d="M395 70H390V75H395V70Z" fill="#002572"/>
<path d="M400 65H395V70H400V65Z" fill="#002572"/>
<path d="M400 70H395V75H400V70Z" fill="#002572"/>
<path d="M370 55H365V60H370V55Z" fill="#002572"/>
<path d="M375 55H370V60H375V55Z" fill="#002572"/>
<path d="M370 60H365V65H370V60Z" fill="#002572"/>
<path d="M375 60H370V65H375V60Z" fill="#002572"/>
<path d="M415 50H410V55H415V50Z" fill="#002572"/>
<path d="M410 50H405V55H410V50Z" fill="#002572"/>
<path d="M410 45H405V50H410V45Z" fill="#002572"/>
<path d="M405 45H400V50H405V45Z" fill="#002572"/>
<path d="M410 40H405V45H410V40Z" fill="#002572"/>
<path d="M405 40H400V45H405V40Z" fill="#002572"/>
<path d="M410 55H405V60H410V55Z" fill="#002572"/>
<path d="M405 55H400V60H405V55Z" fill="#002572"/>
<path d="M410 60H405V65H410V60Z" fill="#002572"/>
<path d="M405 60H400V65H405V60Z" fill="#002572"/>
<path d="M340 45H335V50H340V45Z" fill="#002572"/>
<path d="M340 55H335V60H340V55Z" fill="#002572"/>
<path d="M350 55H345V60H350V55Z" fill="#002572"/>
<path d="M350 45H345V50H350V45Z" fill="#002572"/>
<path d="M340 75H335V80H340V75Z" fill="#002572"/>
<path d="M350 75H345V80H350V75Z" fill="#002572"/>
</g>
<defs>
<clipPath id="clip0_77_10225">
<rect width="415" height="110" fill="white"/>
</clipPath>
</defs>
</svg>
